My Data Science Blog & Projects - Diversified Portfolio with Stock Clustering
…
daily_returns <- daily_returns %>%
  select(where(~ sum(is.na(.x)) < 0.3 * 2764))

indx <- complete.cases(daily_returns)
daily_returns <- daily_returns[indx, ]

Check NA count again and date continuity:

print(sum(colSums(is.na(daily_returns))))

[1] 0

print(daily_returns %>% select(date) %>% mutate(date_diff = date - lag(date)) %>% filter(date_diff > 3))

# A tibble: 37 × 2
   date       date_diff
   <date>     <drtn>   
 1 2014-05-20 4 days   
 2 2014-07-31 6 days   
 3 2014-10-08 5 days   
 4 2015-05-04 4 days   
 5 2015-07-20 4 days   
 6 2015-09-28 5 days   
 7 2016-01-04 4 days   
 8 2016-07-08 4 days   
 9 2016-09-16 7 days   
10 2017-05-02 4 days   
# … with 27 more rows
…
